확률과 통계(2024) - 01. 기술통계(Descriptive Statistics)
…
    guess_encoding

sigungu_url <- "https://ko.wikipedia.org/wiki/대한민국의_기초자치단체_목록"

sgg_html <- read_html(sigungu_url)

sgg_raw <- sgg_html |> 
  html_nodes("table") |>
  html_table() %>%
  .[[1]]

sgg_raw |> 
  janitor::clean_names(ascii = FALSE)

# A tibble: 226 × 5
   이름   광역자치단체   형태  면적_km2 인구_명
   <chr>  <chr>          <chr> <chr>    <chr>  
 1 가평군 경기도         군    843.71   62,814 
 2 강남구 서울특별시     구    39.5     542,341
 3 강동구 서울특별시     구    24.59    426,178
 4 강릉시 강원특별자치도 시    1,040.34 212,858
 5 강북구 서울특별시     구    23.6     318,268
 6 강서구 부산광역시     구    181.48   125,309
 7 강서구 서울특별시     구    41.44    596,602
 8 강진군 전라남도       군    500.95   35,886 
 9 강화군 인천광역시     군    411.43   68,940 
10 거제시 경상남도       시    402.64   249,490
# ℹ 216 more rows
…
